<svg width="70" height="50" viewBox="0 0 70 50" fill="none" xmlns="http://www.w3.org/2000/svg">
<mask id="mask0_3_448" style="mask-type:alpha" maskUnits="userSpaceOnUse" x="0" y="0" width="70" height="50">
<rect width="70" height="50" fill="#F7F8FC"/>
</mask>
<g mask="url(#mask0_3_448)">
<rect width="70" height="50" fill="#F7F8FC"/>
<path d="M-1 5L72 45V52H-1V5Z" fill="#7635FF"/>
<rect x="12" y="8" width="46" height="34" rx="2" fill="white"/>
<rect x="25" y="33" width="20" height="4" rx="2" fill="#7635FF"/>
</g>
</svg>
