<svg width="70" height="50" viewBox="0 0 70 50" fill="none" xmlns="http://www.w3.org/2000/svg">
<path d="M-10 5C-10 -3.28427 -3.28427 -10 5 -10C13.2843 -10 20 -3.28427 20 5C20 13.2843 13.2843 20 5 20C-3.28427 20 -10 13.2843 -10 5Z" fill="#7635FF"/>
<path d="M48 41C48 32.7157 54.7157 26 63 26C71.2843 26 78 32.7157 78 41C78 49.2843 71.2843 56 63 56C54.7157 56 48 49.2843 48 41Z" fill="#7635FF"/>
<path d="M48 10C48 6.13401 51.134 3 55 3C58.866 3 62 6.13401 62 10C62 13.866 58.866 17 55 17C51.134 17 48 13.866 48 10Z" fill="#7635FF"/>
<rect x="12" y="8" width="46" height="34" rx="2" fill="white"/>
<rect x="24" y="33" width="20" height="4" rx="2" fill="#7635FF"/>
</svg>
