<svg width="915" height="818" viewBox="0 0 915 818" fill="none" xmlns="http://www.w3.org/2000/svg">
<mask id="mask0_1_10" style="mask-type:alpha" maskUnits="userSpaceOnUse" x="0" y="0" width="915" height="818">
<path d="M0 15C0 6.71575 6.71573 0 15 0H900C908.284 0 915 6.71573 915 15V803C915 811.284 908.284 818 900 818H15C6.71571 818 0 811.284 0 803V15Z" fill="white"/>
</mask>
<g mask="url(#mask0_1_10)">
<path d="M611 662.5C611 555.081 698.081 468 805.5 468H830.5C937.919 468 1025 555.081 1025 662.5V662.5C1025 769.919 937.919 857 830.5 857H805.5C698.081 857 611 769.919 611 662.5V662.5Z" fill="#7635FF"/>
<path d="M745 110.5C745 69.3548 778.355 36 819.5 36V36C860.645 36 894 69.3548 894 110.5V110.5C894 151.645 860.645 185 819.5 185V185C778.355 185 745 151.645 745 110.5V110.5Z" fill="#7635FF"/>
<path d="M-54 89C-54 0.634448 17.6344 -71 106 -71V-71C194.366 -71 266 0.634448 266 89V89C266 177.366 194.366 249 106 249V249C17.6344 249 -54 177.366 -54 89V89Z" fill="#7635FF"/>
</g>
</svg>
