<svg width="961" height="853" viewBox="0 0 961 853" fill="none" xmlns="http://www.w3.org/2000/svg">
<path d="M961 638.225C961 756.74 745.873 852.815 480.5 852.815C215.127 852.815 0 756.74 0 638.225C0 -67.2118 215.127 1.8517 480.5 1.8517C745.873 1.8517 961 -47.4793 961 638.225Z" fill="#7635FF"/>
</svg>
