<svg width="24" height="24" viewBox="0 0 24 24" fill="none" xmlns="http://www.w3.org/2000/svg">
<circle cx="12" cy="12" r="12" fill="#A1A2B2"/>
<circle cx="12" cy="12" r="10" fill="white"/>
<path d="M16.8974 11V13H7.05127V11H16.8974Z" fill="#A1A2B2"/>
<path d="M12.9743 13V17C12.9743 18.3333 10.9743 18.3333 10.9743 17V13H7.05127C5.71794 13 5.71794 11 7.05127 11H10.9743V7C10.9743 5.66667 12.9743 5.66667 12.9743 7V11H16.8974C18.2308 11 18.2308 13 16.8974 13H12.9743Z" fill="#A1A2B2"/>
</svg>
