
<svg width="7" height="12" viewBox="0 0 7 12" fill="none" xmlns="http://www.w3.org/2000/svg">
<path fill-rule="evenodd" clip-rule="evenodd" d="M6.60341 0.255484C6.26896 -0.0851613 5.72599 -0.0851613 5.39154 0.255484L0.250894 5.39613C-0.0835581 5.72645 -0.0835581 6.27355 0.250894 6.60387L5.39154 11.7445C5.72599 12.0852 6.26896 12.0852 6.60341 11.7445C6.93786 11.4142 6.93786 10.8671 6.60341 10.5368L2.0687 5.99484L6.60341 1.46323C6.93786 1.1329 6.93786 0.585806 6.60341 0.255484Z" fill="#A1A2B2"/>
</svg>
